task3/Vf1_fsm_comb.vcd
$version Generated by VerilatedVcd $end
$date Thu Nov  2 09:52:22 2023 $end
$timescale 1ps $end

 $scope module TOP $end
  $var wire 16 & N [15:0] $end
  $var wire  1 # clk $end
  $var wire  1 % en $end
  $var wire  8 ' out [7:0] $end
  $var wire  1 $ rst $end
  $scope module f1_fms_comb $end
   $var wire 16 & N [15:0] $end
   $var wire 32 , WIDTH [31:0] $end
   $var wire  1 # clk $end
   $var wire  1 % en $end
   $var wire  8 ' out [7:0] $end
   $var wire  1 $ rst $end
   $var wire  1 ( tick $end
   $scope module myF1_fsm $end
    $var wire  1 # clk $end
    $var wire 32 ) current_state [31:0] $end
    $var wire  1 ( en $end
    $var wire 32 * next_state [31:0] $end
    $var wire  8 ' out [7:0] $end
    $var wire  1 $ rst $end
   $upscope $end
   $scope module myTicker $end
    $var wire 16 & N [15:0] $end
    $var wire 32 , WIDTH [31:0] $end
    $var wire  1 # clk $end
    $var wire 16 + count [15:0] $end
    $var wire  1 % en $end
    $var wire  1 $ rst $end
    $var wire  1 ( tick $end
   $upscope $end
  $upscope $end
 $upscope $end
$enddefinitions $end


#0
1#
0$
1%
b0000000000111101 &
b00000000 '
0(
b00000000000000000000000000000000 )
b00000000000000000000000000000001 *
b0000000000000000 +
b00000000000000000000000000010000 ,
#1
0#
#2
1#
1$
0%
1(
b0000000000111101 +
#3
0#
#4
1#
0(
#5
0#
#6
1#
0$
#7
0#
#8
1#
1%
#9
0#
#10
1#
b0000000000111100 +
#11
0#
#12
1#
b0000000000111011 +
#13
0#
#14
1#
b0000000000111010 +
#15
0#
#16
1#
b0000000000111001 +
#17
0#
#18
1#
b0000000000111000 +
#19
0#
#20
1#
b0000000000110111 +
#21
0#
#22
1#
b0000000000110110 +
#23
0#
#24
1#
b0000000000110101 +
#25
0#
#26
1#
b0000000000110100 +
#27
0#
#28
1#
b0000000000110011 +
#29
0#
#30
1#
b0000000000110010 +
#31
0#
#32
1#
b0000000000110001 +
#33
0#
#34
1#
b0000000000110000 +
#35
0#
#36
1#
b0000000000101111 +
#37
0#
#38
1#
b0000000000101110 +
#39
0#
#40
1#
b0000000000101101 +
#41
0#
#42
1#
b0000000000101100 +
#43
0#
#44
1#
b0000000000101011 +
#45
0#
#46
1#
b0000000000101010 +
#47
0#
#48
1#
b0000000000101001 +
#49
0#
#50
1#
b0000000000101000 +
#51
0#
#52
1#
b0000000000100111 +
#53
0#
#54
1#
b0000000000100110 +
#55
0#
#56
1#
b0000000000100101 +
#57
0#
#58
1#
b0000000000100100 +
#59
0#
#60
1#
b0000000000100011 +
#61
0#
#62
1#
b0000000000100010 +
#63
0#
#64
1#
b0000000000100001 +
#65
0#
#66
1#
b0000000000100000 +
#67
0#
#68
1#
b0000000000011111 +
#69
0#
#70
1#
b0000000000011110 +
#71
0#
#72
1#
b0000000000011101 +
#73
0#
#74
1#
b0000000000011100 +
#75
0#
#76
1#
b0000000000011011 +
#77
0#
#78
1#
b0000000000011010 +
#79
0#
#80
1#
b0000000000011001 +
#81
0#
#82
1#
b0000000000011000 +
#83
0#
#84
1#
b0000000000010111 +
#85
0#
#86
1#
b0000000000010110 +
#87
0#
#88
1#
b0000000000010101 +
#89
0#
#90
1#
b0000000000010100 +
#91
0#
#92
1#
b0000000000010011 +
#93
0#
#94
1#
b0000000000010010 +
#95
0#
#96
1#
b0000000000010001 +
#97
0#
#98
1#
b0000000000010000 +
#99
0#
#100
1#
b0000000000001111 +
#101
0#
#102
1#
b0000000000001110 +
#103
0#
#104
1#
b0000000000001101 +
#105
0#
#106
1#
b0000000000001100 +
#107
0#
#108
1#
b0000000000001011 +
#109
0#
#110
1#
b0000000000001010 +
#111
0#
#112
1#
b0000000000001001 +
#113
0#
#114
1#
b0000000000001000 +
#115
0#
#116
1#
b0000000000000111 +
#117
0#
#118
1#
b0000000000000110 +
#119
0#
#120
1#
b0000000000000101 +
#121
0#
#122
1#
b0000000000000100 +
#123
0#
#124
1#
b0000000000000011 +
#125
0#
#126
1#
b0000000000000010 +
#127
0#
#128
1#
b0000000000000001 +
#129
0#
#130
1#
b0000000000000000 +
#131
0#
#132
1#
1(
b0000000000111101 +
#133
0#
#134
1#
b00000001 '
0(
b00000000000000000000000000000001 )
b00000000000000000000000000000010 *
b0000000000111100 +
#135
0#
#136
1#
b0000000000111011 +
#137
0#
#138
1#
b0000000000111010 +
#139
0#
#140
1#
b0000000000111001 +
#141
0#
#142
1#
b0000000000111000 +
#143
0#
#144
1#
b0000000000110111 +
#145
0#
#146
1#
b0000000000110110 +
#147
0#
#148
1#
b0000000000110101 +
#149
0#
#150
1#
b0000000000110100 +
#151
0#
#152
1#
b0000000000110011 +
#153
0#
#154
1#
b0000000000110010 +
#155
0#
#156
1#
b0000000000110001 +
#157
0#
#158
1#
b0000000000110000 +
#159
0#
#160
1#
b0000000000101111 +
#161
0#
#162
1#
b0000000000101110 +
#163
0#
#164
1#
b0000000000101101 +
#165
0#
#166
1#
b0000000000101100 +
#167
0#
#168
1#
b0000000000101011 +
#169
0#
#170
1#
b0000000000101010 +
#171
0#
#172
1#
b0000000000101001 +
#173
0#
#174
1#
b0000000000101000 +
#175
0#
#176
1#
b0000000000100111 +
#177
0#
#178
1#
b0000000000100110 +
#179
0#
#180
1#
b0000000000100101 +
#181
0#
#182
1#
b0000000000100100 +
#183
0#
#184
1#
b0000000000100011 +
#185
0#
#186
1#
b0000000000100010 +
#187
0#
#188
1#
b0000000000100001 +
#189
0#
#190
1#
b0000000000100000 +
#191
0#
#192
1#
b0000000000011111 +
#193
0#
#194
1#
b0000000000011110 +
#195
0#
#196
1#
b0000000000011101 +
#197
0#
#198
1#
b0000000000011100 +
#199
0#
#200
1#
b0000000000011011 +
#201
0#
#202
1#
b0000000000011010 +
#203
0#
#204
1#
b0000000000011001 +
#205
0#
#206
1#
b0000000000011000 +
#207
0#
#208
1#
b0000000000010111 +
#209
0#
#210
1#
b0000000000010110 +
#211
0#
#212
1#
b0000000000010101 +
#213
0#
#214
1#
b0000000000010100 +
#215
0#
#216
1#
b0000000000010011 +
#217
0#
#218
1#
b0000000000010010 +
#219
0#
#220
1#
b0000000000010001 +
#221
0#
#222
1#
b0000000000010000 +
#223
0#
#224
1#
b0000000000001111 +
#225
0#
#226
1#
b0000000000001110 +
#227
0#
#228
1#
b0000000000001101 +
#229
0#
#230
1#
b0000000000001100 +
#231
0#
#232
1#
b0000000000001011 +
#233
0#
#234
1#
b0000000000001010 +
#235
0#
#236
1#
b0000000000001001 +
#237
0#
#238
1#
b0000000000001000 +
#239
0#
#240
1#
b0000000000000111 +
#241
0#
#242
1#
b0000000000000110 +
#243
0#
#244
1#
b0000000000000101 +
#245
0#
#246
1#
b0000000000000100 +
#247
0#
#248
1#
b0000000000000011 +
#249
0#
#250
1#
b0000000000000010 +
#251
0#
#252
1#
b0000000000000001 +
#253
0#
#254
1#
b0000000000000000 +
#255
0#
#256
1#
1(
b0000000000111101 +
#257
0#
#258
1#
b00000011 '
0(
b00000000000000000000000000000010 )
b00000000000000000000000000000011 *
b0000000000111100 +
#259
0#
#260
1#
b0000000000111011 +
#261
0#
#262
1#
b0000000000111010 +
#263
0#
#264
1#
b0000000000111001 +
#265
0#
#266
1#
b0000000000111000 +
#267
0#
#268
1#
b0000000000110111 +
#269
0#
#270
1#
b0000000000110110 +
#271
0#
#272
1#
b0000000000110101 +
#273
0#
#274
1#
b0000000000110100 +
#275
0#
#276
1#
b0000000000110011 +
#277
0#
#278
1#
b0000000000110010 +
#279
0#
#280
1#
b0000000000110001 +
#281
0#
#282
1#
b0000000000110000 +
#283
0#
#284
1#
b0000000000101111 +
#285
0#
#286
1#
b0000000000101110 +
#287
0#
#288
1#
b0000000000101101 +
#289
0#
#290
1#
b0000000000101100 +
#291
0#
#292
1#
b0000000000101011 +
#293
0#
#294
1#
b0000000000101010 +
#295
0#
#296
1#
b0000000000101001 +
#297
0#
#298
1#
b0000000000101000 +
#299
0#
#300
1#
b0000000000100111 +
#301
0#
#302
1#
b0000000000100110 +
#303
0#
#304
1#
b0000000000100101 +
#305
0#
#306
1#
b0000000000100100 +
#307
0#
#308
1#
b0000000000100011 +
#309
0#
#310
1#
b0000000000100010 +
#311
0#
#312
1#
b0000000000100001 +
#313
0#
#314
1#
b0000000000100000 +
#315
0#
#316
1#
b0000000000011111 +
#317
0#
#318
1#
b0000000000011110 +
#319
0#
#320
1#
b0000000000011101 +
#321
0#
#322
1#
b0000000000011100 +
#323
0#
#324
1#
b0000000000011011 +
#325
0#
#326
1#
b0000000000011010 +
#327
0#
#328
1#
b0000000000011001 +
#329
0#
#330
1#
b0000000000011000 +
#331
0#
#332
1#
b0000000000010111 +
#333
0#
#334
1#
b0000000000010110 +
#335
0#
#336
1#
b0000000000010101 +
#337
0#
#338
1#
b0000000000010100 +
#339
0#
#340
1#
b0000000000010011 +
#341
0#
#342
1#
b0000000000010010 +
#343
0#
#344
1#
b0000000000010001 +
#345
0#
#346
1#
b0000000000010000 +
#347
0#
#348
1#
b0000000000001111 +
#349
0#
#350
1#
b0000000000001110 +
#351
0#
#352
1#
b0000000000001101 +
#353
0#
#354
1#
b0000000000001100 +
#355
0#
#356
1#
b0000000000001011 +
#357
0#
#358
1#
b0000000000001010 +
#359
0#
#360
1#
b0000000000001001 +
#361
0#
#362
1#
b0000000000001000 +
#363
0#
#364
1#
b0000000000000111 +
#365
0#
#366
1#
b0000000000000110 +
#367
0#
#368
1#
b0000000000000101 +
#369
0#
#370
1#
b0000000000000100 +
#371
0#
#372
1#
b0000000000000011 +
#373
0#
#374
1#
b0000000000000010 +
#375
0#
#376
1#
b0000000000000001 +
#377
0#
#378
1#
b0000000000000000 +
#379
0#
#380
1#
1(
b0000000000111101 +
#381
0#
#382
1#
b00000111 '
0(
b00000000000000000000000000000011 )
b00000000000000000000000000000100 *
b0000000000111100 +
#383
0#
#384
1#
b0000000000111011 +
#385
0#
#386
1#
b0000000000111010 +
#387
0#
#388
1#
b0000000000111001 +
#389
0#
#390
1#
b0000000000111000 +
#391
0#
#392
1#
b0000000000110111 +
#393
0#
#394
1#
b0000000000110110 +
#395
0#
#396
1#
b0000000000110101 +
#397
0#
#398
1#
b0000000000110100 +
#399
0#
#400
1#
b0000000000110011 +
#401
0#
#402
1#
b0000000000110010 +
#403
0#
#404
1#
b0000000000110001 +
#405
0#
#406
1#
b0000000000110000 +
#407
0#
#408
1#
b0000000000101111 +
#409
0#
#410
1#
b0000000000101110 +
#411
0#
#412
1#
b0000000000101101 +
#413
0#
#414
1#
b0000000000101100 +
#415
0#
#416
1#
b0000000000101011 +
#417
0#
#418
1#
b0000000000101010 +
#419
0#
#420
1#
b0000000000101001 +
#421
0#
#422
1#
b0000000000101000 +
#423
0#
#424
1#
b0000000000100111 +
#425
0#
#426
1#
b0000000000100110 +
#427
0#
#428
1#
b0000000000100101 +
#429
0#
#430
1#
b0000000000100100 +
#431
0#
#432
1#
b0000000000100011 +
#433
0#
#434
1#
b0000000000100010 +
#435
0#
#436
1#
b0000000000100001 +
#437
0#
#438
1#
b0000000000100000 +
#439
0#
#440
1#
b0000000000011111 +
#441
0#
#442
1#
b0000000000011110 +
#443
0#
#444
1#
b0000000000011101 +
#445
0#
#446
1#
b0000000000011100 +
#447
0#
#448
1#
b0000000000011011 +
#449
0#
#450
1#
b0000000000011010 +
#451
0#
#452
1#
b0000000000011001 +
#453
0#
#454
1#
b0000000000011000 +
#455
0#
#456
1#
b0000000000010111 +
#457
0#
#458
1#
b0000000000010110 +
#459
0#
#460
1#
b0000000000010101 +
#461
0#
#462
1#
b0000000000010100 +
#463
0#
#464
1#
b0000000000010011 +
#465
0#
#466
1#
b0000000000010010 +
#467
0#
#468
1#
b0000000000010001 +
#469
0#
#470
1#
b0000000000010000 +
#471
0#
#472
1#
b0000000000001111 +
#473
0#
#474
1#
b0000000000001110 +
#475
0#
#476
1#
b0000000000001101 +
#477
0#
#478
1#
b0000000000001100 +
#479
0#
#480
1#
b0000000000001011 +
#481
0#
#482
1#
b0000000000001010 +
#483
0#
#484
1#
b0000000000001001 +
#485
0#
#486
1#
b0000000000001000 +
#487
0#
#488
1#
b0000000000000111 +
#489
0#
#490
1#
b0000000000000110 +
#491
0#
#492
1#
b0000000000000101 +
#493
0#
#494
1#
b0000000000000100 +
#495
0#
#496
1#
b0000000000000011 +
#497
0#
#498
1#
b0000000000000010 +
#499
0#
#500
1#
b0000000000000001 +
#501
0#
#502
1#
b0000000000000000 +
#503
0#
#504
1#
1(
b0000000000111101 +
#505
0#
#506
1#
b00001111 '
0(
b00000000000000000000000000000100 )
b00000000000000000000000000000101 *
b0000000000111100 +
#507
0#
#508
1#
b0000000000111011 +
#509
0#
#510
1#
b0000000000111010 +
#511
0#
#512
1#
b0000000000111001 +
#513
0#
#514
1#
b0000000000111000 +
#515
0#
#516
1#
b0000000000110111 +
#517
0#
#518
1#
b0000000000110110 +
#519
0#
#520
1#
b0000000000110101 +
#521
0#
#522
1#
b0000000000110100 +
#523
0#
#524
1#
b0000000000110011 +
#525
0#
#526
1#
b0000000000110010 +
#527
0#
#528
1#
b0000000000110001 +
#529
0#
#530
1#
b0000000000110000 +
#531
0#
#532
1#
b0000000000101111 +
#533
0#
#534
1#
b0000000000101110 +
#535
0#
#536
1#
b0000000000101101 +
#537
0#
#538
1#
b0000000000101100 +
#539
0#
#540
1#
b0000000000101011 +
#541
0#
#542
1#
b0000000000101010 +
#543
0#
#544
1#
b0000000000101001 +
#545
0#
#546
1#
b0000000000101000 +
#547
0#
#548
1#
b0000000000100111 +
#549
0#
#550
1#
b0000000000100110 +
#551
0#
#552
1#
b0000000000100101 +
#553
0#
#554
1#
b0000000000100100 +
#555
0#
#556
1#
b0000000000100011 +
#557
0#
#558
1#
b0000000000100010 +
#559
0#
#560
1#
b0000000000100001 +
#561
0#
#562
1#
b0000000000100000 +
#563
0#
#564
1#
b0000000000011111 +
#565
0#
#566
1#
b0000000000011110 +
#567
0#
#568
1#
b0000000000011101 +
#569
0#
#570
1#
b0000000000011100 +
#571
0#
#572
1#
b0000000000011011 +
#573
0#
#574
1#
b0000000000011010 +
#575
0#
#576
1#
b0000000000011001 +
#577
0#
#578
1#
b0000000000011000 +
#579
0#
#580
1#
b0000000000010111 +
#581
0#
#582
1#
b0000000000010110 +
#583
0#
#584
1#
b0000000000010101 +
#585
0#
#586
1#
b0000000000010100 +
#587
0#
#588
1#
b0000000000010011 +
#589
0#
#590
1#
b0000000000010010 +
#591
0#
#592
1#
b0000000000010001 +
#593
0#
#594
1#
b0000000000010000 +
#595
0#
#596
1#
b0000000000001111 +
#597
0#
#598
1#
b0000000000001110 +
#599
0#
#600
1#
b0000000000001101 +
#601
0#
#602
1#
b0000000000001100 +
#603
0#
#604
1#
b0000000000001011 +
#605
0#
#606
1#
b0000000000001010 +
#607
0#
#608
1#
b0000000000001001 +
#609
0#
#610
1#
b0000000000001000 +
#611
0#
#612
1#
b0000000000000111 +
#613
0#
#614
1#
b0000000000000110 +
#615
0#
#616
1#
b0000000000000101 +
#617
0#
#618
1#
b0000000000000100 +
#619
0#
#620
1#
b0000000000000011 +
#621
0#
#622
1#
b0000000000000010 +
#623
0#
#624
1#
b0000000000000001 +
#625
0#
#626
1#
b0000000000000000 +
#627
0#
#628
1#
1(
b0000000000111101 +
#629
0#
#630
1#
b00011111 '
0(
b00000000000000000000000000000101 )
b00000000000000000000000000000110 *
b0000000000111100 +
#631
0#
#632
1#
b0000000000111011 +
#633
0#
#634
1#
b0000000000111010 +
#635
0#
#636
1#
b0000000000111001 +
#637
0#
#638
1#
b0000000000111000 +
#639
0#
#640
1#
b0000000000110111 +
#641
0#
#642
1#
b0000000000110110 +
#643
0#
#644
1#
b0000000000110101 +
#645
0#
#646
1#
b0000000000110100 +
#647
0#
#648
1#
b0000000000110011 +
#649
0#
#650
1#
b0000000000110010 +
#651
0#
#652
1#
b0000000000110001 +
#653
0#
#654
1#
b0000000000110000 +
#655
0#
#656
1#
b0000000000101111 +
#657
0#
#658
1#
b0000000000101110 +
#659
0#
#660
1#
b0000000000101101 +
#661
0#
#662
1#
b0000000000101100 +
#663
0#
#664
1#
b0000000000101011 +
#665
0#
#666
1#
b0000000000101010 +
#667
0#
#668
1#
b0000000000101001 +
#669
0#
#670
1#
b0000000000101000 +
#671
0#
#672
1#
b0000000000100111 +
#673
0#
#674
1#
b0000000000100110 +
#675
0#
#676
1#
b0000000000100101 +
#677
0#
#678
1#
b0000000000100100 +
#679
0#
#680
1#
b0000000000100011 +
#681
0#
#682
1#
b0000000000100010 +
#683
0#
#684
1#
b0000000000100001 +
#685
0#
#686
1#
b0000000000100000 +
#687
0#
#688
1#
b0000000000011111 +
#689
0#
#690
1#
b0000000000011110 +
#691
0#
#692
1#
b0000000000011101 +
#693
0#
#694
1#
b0000000000011100 +
#695
0#
#696
1#
b0000000000011011 +
#697
0#
#698
1#
b0000000000011010 +
#699
0#
#700
1#
b0000000000011001 +
#701
0#
#702
1#
b0000000000011000 +
#703
0#
#704
1#
b0000000000010111 +
#705
0#
#706
1#
b0000000000010110 +
#707
0#
#708
1#
b0000000000010101 +
#709
0#
#710
1#
b0000000000010100 +
#711
0#
#712
1#
b0000000000010011 +
#713
0#
#714
1#
b0000000000010010 +
#715
0#
#716
1#
b0000000000010001 +
#717
0#
#718
1#
b0000000000010000 +
#719
0#
#720
1#
b0000000000001111 +
#721
0#
#722
1#
b0000000000001110 +
#723
0#
#724
1#
b0000000000001101 +
#725
0#
#726
1#
b0000000000001100 +
#727
0#
#728
1#
b0000000000001011 +
#729
0#
#730
1#
b0000000000001010 +
#731
0#
#732
1#
b0000000000001001 +
#733
0#
#734
1#
b0000000000001000 +
#735
0#
#736
1#
b0000000000000111 +
#737
0#
#738
1#
b0000000000000110 +
#739
0#
#740
1#
b0000000000000101 +
#741
0#
#742
1#
b0000000000000100 +
#743
0#
#744
1#
b0000000000000011 +
#745
0#
#746
1#
b0000000000000010 +
#747
0#
#748
1#
b0000000000000001 +
#749
0#
#750
1#
b0000000000000000 +
#751
0#
#752
1#
1(
b0000000000111101 +
#753
0#
#754
1#
b00111111 '
0(
b00000000000000000000000000000110 )
b00000000000000000000000000000111 *
b0000000000111100 +
#755
0#
#756
1#
b0000000000111011 +
#757
0#
#758
1#
b0000000000111010 +
#759
0#
#760
1#
b0000000000111001 +
#761
0#
#762
1#
b0000000000111000 +
#763
0#
#764
1#
b0000000000110111 +
#765
0#
#766
1#
b0000000000110110 +
#767
0#
#768
1#
b0000000000110101 +
#769
0#
#770
1#
b0000000000110100 +
#771
0#
#772
1#
b0000000000110011 +
#773
0#
#774
1#
b0000000000110010 +
#775
0#
#776
1#
b0000000000110001 +
#777
0#
#778
1#
b0000000000110000 +
#779
0#
#780
1#
b0000000000101111 +
#781
0#
#782
1#
b0000000000101110 +
#783
0#
#784
1#
b0000000000101101 +
#785
0#
#786
1#
b0000000000101100 +
#787
0#
#788
1#
b0000000000101011 +
#789
0#
#790
1#
b0000000000101010 +
#791
0#
#792
1#
b0000000000101001 +
#793
0#
#794
1#
b0000000000101000 +
#795
0#
#796
1#
b0000000000100111 +
#797
0#
#798
1#
b0000000000100110 +
#799
0#
#800
1#
b0000000000100101 +
#801
0#
#802
1#
b0000000000100100 +
#803
0#
#804
1#
b0000000000100011 +
#805
0#
#806
1#
b0000000000100010 +
#807
0#
#808
1#
b0000000000100001 +
#809
0#
#810
1#
b0000000000100000 +
#811
0#
#812
1#
b0000000000011111 +
#813
0#
#814
1#
b0000000000011110 +
#815
0#
#816
1#
b0000000000011101 +
#817
0#
#818
1#
b0000000000011100 +
#819
0#
#820
1#
b0000000000011011 +
#821
0#
#822
1#
b0000000000011010 +
#823
0#
#824
1#
b0000000000011001 +
#825
0#
#826
1#
b0000000000011000 +
#827
0#
#828
1#
b0000000000010111 +
#829
0#
#830
1#
b0000000000010110 +
#831
0#
#832
1#
b0000000000010101 +
#833
0#
#834
1#
b0000000000010100 +
#835
0#
#836
1#
b0000000000010011 +
#837
0#
#838
1#
b0000000000010010 +
#839
0#
#840
1#
b0000000000010001 +
#841
0#
#842
1#
b0000000000010000 +
#843
0#
#844
1#
b0000000000001111 +
#845
0#
#846
1#
b0000000000001110 +
#847
0#
#848
1#
b0000000000001101 +
#849
0#
#850
1#
b0000000000001100 +
#851
0#
#852
1#
b0000000000001011 +
#853
0#
#854
1#
b0000000000001010 +
#855
0#
#856
1#
b0000000000001001 +
#857
0#
#858
1#
b0000000000001000 +
#859
0#
#860
1#
b0000000000000111 +
#861
0#
#862
1#
b0000000000000110 +
#863
0#
#864
1#
b0000000000000101 +
#865
0#
#866
1#
b0000000000000100 +
#867
0#
#868
1#
b0000000000000011 +
#869
0#
#870
1#
b0000000000000010 +
#871
0#
#872
1#
b0000000000000001 +
#873
0#
#874
1#
b0000000000000000 +
#875
0#
#876
1#
1(
b0000000000111101 +
#877
0#
#878
1#
b01111111 '
0(
b00000000000000000000000000000111 )
b00000000000000000000000000001000 *
b0000000000111100 +
#879
0#
#880
1#
b0000000000111011 +
#881
0#
#882
1#
b0000000000111010 +
#883
0#
#884
1#
b0000000000111001 +
#885
0#
#886
1#
b0000000000111000 +
#887
0#
#888
1#
b0000000000110111 +
#889
0#
#890
1#
b0000000000110110 +
#891
0#
#892
1#
b0000000000110101 +
#893
0#
#894
1#
b0000000000110100 +
#895
0#
#896
1#
b0000000000110011 +
#897
0#
#898
1#
b0000000000110010 +
#899
0#
#900
1#
b0000000000110001 +
#901
0#
#902
1#
b0000000000110000 +
#903
0#
#904
1#
b0000000000101111 +
#905
0#
#906
1#
b0000000000101110 +
#907
0#
#908
1#
b0000000000101101 +
#909
0#
#910
1#
b0000000000101100 +
#911
0#
#912
1#
b0000000000101011 +
#913
0#
#914
1#
b0000000000101010 +
#915
0#
#916
1#
b0000000000101001 +
#917
0#
#918
1#
b0000000000101000 +
#919
0#
#920
1#
b0000000000100111 +
#921
0#
#922
1#
b0000000000100110 +
#923
0#
#924
1#
b0000000000100101 +
#925
0#
#926
1#
b0000000000100100 +
#927
0#
#928
1#
b0000000000100011 +
#929
0#
#930
1#
b0000000000100010 +
#931
0#
#932
1#
b0000000000100001 +
#933
0#
#934
1#
b0000000000100000 +
#935
0#
#936
1#
b0000000000011111 +
#937
0#
#938
1#
b0000000000011110 +
#939
0#
#940
1#
b0000000000011101 +
#941
0#
#942
1#
b0000000000011100 +
#943
0#
#944
1#
b0000000000011011 +
#945
0#
#946
1#
b0000000000011010 +
#947
0#
#948
1#
b0000000000011001 +
#949
0#
#950
1#
b0000000000011000 +
#951
0#
#952
1#
b0000000000010111 +
#953
0#
#954
1#
b0000000000010110 +
#955
0#
#956
1#
b0000000000010101 +
#957
0#
#958
1#
b0000000000010100 +
#959
0#
#960
1#
b0000000000010011 +
#961
0#
#962
1#
b0000000000010010 +
#963
0#
#964
1#
b0000000000010001 +
#965
0#
#966
1#
b0000000000010000 +
#967
0#
#968
1#
b0000000000001111 +
#969
0#
#970
1#
b0000000000001110 +
#971
0#
#972
1#
b0000000000001101 +
#973
0#
#974
1#
b0000000000001100 +
#975
0#
#976
1#
b0000000000001011 +
#977
0#
#978
1#
b0000000000001010 +
#979
0#
#980
1#
b0000000000001001 +
#981
0#
#982
1#
b0000000000001000 +
#983
0#
#984
1#
b0000000000000111 +
#985
0#
#986
1#
b0000000000000110 +
#987
0#
#988
1#
b0000000000000101 +
#989
0#
#990
1#
b0000000000000100 +
#991
0#
#992
1#
b0000000000000011 +
#993
0#
#994
1#
b0000000000000010 +
#995
0#
#996
1#
b0000000000000001 +
#997
0#
#998
1#
b0000000000000000 +
#999
0#
#1000
1#
1(
b0000000000111101 +
#1001
0#
#1002
1#
b11111111 '
0(
b00000000000000000000000000001000 )
b00000000000000000000000000000000 *
b0000000000111100 +
#1003
0#
#1004
1#
b0000000000111011 +
#1005
0#
#1006
1#
b0000000000111010 +
#1007
0#
#1008
1#
b0000000000111001 +
#1009
0#
#1010
1#
b0000000000111000 +
#1011
0#
#1012
1#
b0000000000110111 +
#1013
0#
#1014
1#
b0000000000110110 +
#1015
0#
#1016
1#
b0000000000110101 +
#1017
0#
#1018
1#
b0000000000110100 +
#1019
0#
#1020
1#
b0000000000110011 +
#1021
0#
#1022
1#
b0000000000110010 +
#1023
0#
#1024
1#
b0000000000110001 +
#1025
0#
#1026
1#
b0000000000110000 +
#1027
0#
#1028
1#
b0000000000101111 +
#1029
0#
#1030
1#
b0000000000101110 +
#1031
0#
#1032
1#
b0000000000101101 +
#1033
0#
#1034
1#
b0000000000101100 +
#1035
0#
#1036
1#
b0000000000101011 +
#1037
0#
#1038
1#
b0000000000101010 +
#1039
0#
#1040
1#
b0000000000101001 +
#1041
0#
#1042
1#
b0000000000101000 +
#1043
0#
#1044
1#
b0000000000100111 +
#1045
0#
#1046
1#
b0000000000100110 +
#1047
0#
#1048
1#
b0000000000100101 +
#1049
0#
#1050
1#
b0000000000100100 +
#1051
0#
#1052
1#
b0000000000100011 +
#1053
0#
#1054
1#
b0000000000100010 +
#1055
0#
#1056
1#
b0000000000100001 +
#1057
0#
#1058
1#
b0000000000100000 +
#1059
0#
#1060
1#
b0000000000011111 +
#1061
0#
#1062
1#
b0000000000011110 +
#1063
0#
#1064
1#
b0000000000011101 +
#1065
0#
#1066
1#
b0000000000011100 +
#1067
0#
#1068
1#
b0000000000011011 +
#1069
0#
#1070
1#
b0000000000011010 +
#1071
0#
#1072
1#
b0000000000011001 +
#1073
0#
#1074
1#
b0000000000011000 +
#1075
0#
#1076
1#
b0000000000010111 +
#1077
0#
#1078
1#
b0000000000010110 +
#1079
0#
#1080
1#
b0000000000010101 +
#1081
0#
#1082
1#
b0000000000010100 +
#1083
0#
#1084
1#
b0000000000010011 +
#1085
0#
#1086
1#
b0000000000010010 +
#1087
0#
#1088
1#
b0000000000010001 +
#1089
0#
#1090
1#
b0000000000010000 +
#1091
0#
#1092
1#
b0000000000001111 +
#1093
0#
#1094
1#
b0000000000001110 +
#1095
0#
#1096
1#
b0000000000001101 +
#1097
0#
#1098
1#
b0000000000001100 +
#1099
0#
#1100
1#
b0000000000001011 +
#1101
0#
#1102
1#
b0000000000001010 +
#1103
0#
#1104
1#
b0000000000001001 +
#1105
0#
#1106
1#
b0000000000001000 +
#1107
0#
#1108
1#
b0000000000000111 +
#1109
0#
#1110
1#
b0000000000000110 +
#1111
0#
#1112
1#
b0000000000000101 +
#1113
0#
#1114
1#
b0000000000000100 +
#1115
0#
#1116
1#
b0000000000000011 +
#1117
0#
#1118
1#
b0000000000000010 +
#1119
0#
#1120
1#
b0000000000000001 +
#1121
0#
#1122
1#
b0000000000000000 +
#1123
0#
#1124
1#
1(
b0000000000111101 +
#1125
0#
#1126
1#
b00000000 '
0(
b00000000000000000000000000000000 )
b00000000000000000000000000000001 *
b0000000000111100 +
#1127
0#
#1128
1#
b0000000000111011 +
#1129
0#
#1130
1#
b0000000000111010 +
#1131
0#
#1132
1#
b0000000000111001 +
#1133
0#
#1134
1#
b0000000000111000 +
#1135
0#
#1136
1#
b0000000000110111 +
#1137
0#
#1138
1#
b0000000000110110 +
#1139
0#
#1140
1#
b0000000000110101 +
#1141
0#
#1142
1#
b0000000000110100 +
#1143
0#
#1144
1#
b0000000000110011 +
#1145
0#
#1146
1#
b0000000000110010 +
#1147
0#
#1148
1#
b0000000000110001 +
#1149
0#
#1150
1#
b0000000000110000 +
#1151
0#
#1152
1#
b0000000000101111 +
#1153
0#
#1154
1#
b0000000000101110 +
#1155
0#
#1156
1#
b0000000000101101 +
#1157
0#
#1158
1#
b0000000000101100 +
#1159
0#
#1160
1#
b0000000000101011 +
#1161
0#
#1162
1#
b0000000000101010 +
#1163
0#
#1164
1#
b0000000000101001 +
#1165
0#
#1166
1#
b0000000000101000 +
#1167
0#
#1168
1#
b0000000000100111 +
#1169
0#
#1170
1#
b0000000000100110 +
#1171
0#
#1172
1#
b0000000000100101 +
#1173
0#
#1174
1#
b0000000000100100 +
#1175
0#
#1176
1#
b0000000000100011 +
#1177
0#
#1178
1#
b0000000000100010 +
#1179
0#
#1180
1#
b0000000000100001 +
#1181
0#
#1182
1#
b0000000000100000 +
#1183
0#
#1184
1#
b0000000000011111 +
#1185
0#
#1186
1#
b0000000000011110 +
#1187
0#
#1188
1#
b0000000000011101 +
#1189
0#
#1190
1#
b0000000000011100 +
#1191
0#
#1192
1#
b0000000000011011 +
#1193
0#
#1194
1#
b0000000000011010 +
#1195
0#
#1196
1#
b0000000000011001 +
#1197
0#
#1198
1#
b0000000000011000 +
#1199
0#
#1200
1#
b0000000000010111 +
#1201
0#
#1202
1#
b0000000000010110 +
#1203
0#
#1204
1#
b0000000000010101 +
#1205
0#
#1206
1#
b0000000000010100 +
#1207
0#
#1208
1#
b0000000000010011 +
#1209
0#
#1210
1#
b0000000000010010 +
#1211
0#
#1212
1#
b0000000000010001 +
#1213
0#
#1214
1#
b0000000000010000 +
#1215
0#
#1216
1#
b0000000000001111 +
#1217
0#
#1218
1#
b0000000000001110 +
#1219
0#
#1220
1#
b0000000000001101 +
#1221
0#
#1222
1#
b0000000000001100 +
#1223
0#
#1224
1#
b0000000000001011 +
#1225
0#
#1226
1#
b0000000000001010 +
#1227
0#
#1228
1#
b0000000000001001 +
#1229
0#
#1230
1#
b0000000000001000 +
#1231
0#
#1232
1#
b0000000000000111 +
#1233
0#
#1234
1#
b0000000000000110 +
#1235
0#
#1236
1#
b0000000000000101 +
#1237
0#
#1238
1#
b0000000000000100 +
#1239
0#
#1240
1#
b0000000000000011 +
#1241
0#
#1242
1#
b0000000000000010 +
#1243
0#
#1244
1#
b0000000000000001 +
#1245
0#
#1246
1#
b0000000000000000 +
