task4/top.vcd
$version Generated by VerilatedVcd $end
$date Fri Nov  3 00:15:53 2023 $end
$timescale 1ps $end

 $scope module TOP $end
  $var wire  1 . clk $end
  $var wire  8 2 data_out [7:0] $end
  $var wire  1 / rst $end
  $var wire 16 1 ticklength [15:0] $end
  $var wire  1 0 trigger $end
  $scope module top $end
   $var wire 32 4 WIDTH [31:0] $end
   $var wire  1 . clk $end
   $var wire  1 % cmd_delay $end
   $var wire  1 $ cmd_seq $end
   $var wire  8 2 data_out [7:0] $end
   $var wire  1 ( f1_fsm_en $end
   $var wire  7 # randNum [6:0] $end
   $var wire  1 / rst $end
   $var wire  1 ' tick $end
   $var wire 16 1 ticklength [15:0] $end
   $var wire  1 & time_out $end
   $var wire  1 0 trigger $end
   $scope module myDelay $end
    $var wire 32 5 WIDTH [31:0] $end
    $var wire  1 . clk $end
    $var wire  7 ) count [6:0] $end
    $var wire 32 * current_state [31:0] $end
    $var wire  7 # n [6:0] $end
    $var wire 32 + next_state [31:0] $end
    $var wire  1 / rst $end
    $var wire  1 & time_out $end
    $var wire  1 % trigger $end
   $upscope $end
   $scope module myLights $end
    $var wire  1 . clk $end
    $var wire  1 % cmd_delay $end
    $var wire  1 $ cmd_seq $end
    $var wire 32 , current_state [31:0] $end
    $var wire  1 ( en $end
    $var wire 32 3 next_state [31:0] $end
    $var wire  8 2 out [7:0] $end
    $var wire  1 / rst $end
    $var wire  1 0 trigger $end
   $upscope $end
   $scope module myTicker $end
    $var wire 16 1 N [15:0] $end
    $var wire 32 4 WIDTH [31:0] $end
    $var wire  1 . clk $end
    $var wire 16 - count [15:0] $end
    $var wire  1 $ en $end
    $var wire  1 / rst $end
    $var wire  1 ' tick $end
   $upscope $end
   $scope module randGen $end
    $var wire  1 . clk $end
    $var wire  7 # data_out [6:0] $end
    $var wire  1 6 en $end
    $var wire  1 / rst $end
    $var wire  7 # sreg [6:0] $end
   $upscope $end
  $upscope $end
 $upscope $end
$enddefinitions $end


#0
b0000000 #
0$
0%
0&
0'
0(
b0000000 )
b00000000000000000000000000000000 *
b00000000000000000000000000000000 +
b00000000000000000000000000000000 ,
b0000000000000000 -
1.
0/
00
b0000000000010111 1
b00000000 2
b00000000000000000000000000000000 3
b00000000000000000000000000010000 4
b00000000000000000000000000000111 5
16
#1
1$
0.
#2
1'
1(
b1111111 )
b0000000000010111 -
1.
1/
#3
0.
#4
b0000001 #
0'
0(
1.
#5
0.
#6
b0000000 )
1.
0/
#7
0.
#8
b0000010 #
b0000000000010110 -
1.
#9
0.
#10
b0000100 #
b0000001 )
b0000000000010101 -
1.
#11
0.
#12
b0001001 #
b0000000 )
b0000000000010100 -
1.
#13
0.
#14
b0010010 #
b0001000 )
b0000000000010011 -
1.
#15
0.
#16
b0100100 #
b0000111 )
b0000000000010010 -
1.
#17
0.
#18
b1001001 #
b0000110 )
b0000000000010001 -
1.
#19
0.
#20
b0010011 #
b0000101 )
b0000000000010000 -
1.
#21
0.
#22
b0100110 #
b0000100 )
b0000000000001111 -
1.
#23
0.
#24
b1001101 #
b0000011 )
b0000000000001110 -
1.
#25
0.
#26
b0011010 #
b0000010 )
b0000000000001101 -
1.
#27
0.
#28
b0110100 #
b0000001 )
b0000000000001100 -
1.
#29
0.
#30
b1101001 #
b0000000 )
b0000000000001011 -
1.
#31
0.
#32
b1010011 #
b1101000 )
b0000000000001010 -
1.
#33
0.
#34
b0100111 #
b1100111 )
b0000000000001001 -
1.
#35
0.
#36
b1001111 #
b1100110 )
b0000000000001000 -
1.
#37
0.
#38
b0011110 #
b1100101 )
b0000000000000111 -
1.
#39
0.
#40
b0111101 #
b1100100 )
b0000000000000110 -
1.
#41
0.
#42
b1111011 #
b1100011 )
b0000000000000101 -
1.
#43
0.
#44
b1110111 #
b1100010 )
b0000000000000100 -
1.
#45
0.
#46
b1101110 #
b1100001 )
b0000000000000011 -
1.
#47
0.
#48
b1011100 #
b1100000 )
b0000000000000010 -
1.
#49
0.
#50
b0111000 #
b1011111 )
b0000000000000001 -
1.
#51
0.
#52
b1110000 #
b1011110 )
b0000000000000000 -
1.
#53
0.
#54
b1100001 #
1'
1(
b1011101 )
b0000000000010111 -
1.
#55
0.
#56
b1000011 #
0'
0(
b1011100 )
b0000000000010110 -
1.
#57
0.
#58
b0000111 #
b1011011 )
b0000000000010101 -
1.
#59
0.
#60
b0001111 #
b1011010 )
b0000000000010100 -
1.
#61
0.
#62
b0011111 #
b1011001 )
b0000000000010011 -
1.
#63
0.
#64
b0111111 #
b1011000 )
b0000000000010010 -
1.
#65
0.
#66
b1111111 #
b1010111 )
b0000000000010001 -
1.
#67
0.
#68
b1111110 #
b1010110 )
b0000000000010000 -
1.
#69
0.
#70
b1111100 #
b1010101 )
b0000000000001111 -
1.
#71
0.
#72
b1111000 #
b1010100 )
b0000000000001110 -
1.
#73
0.
#74
b1110001 #
b1010011 )
b0000000000001101 -
1.
#75
0.
#76
b1100011 #
b1010010 )
b0000000000001100 -
1.
#77
0.
#78
b1000111 #
b1010001 )
b0000000000001011 -
1.
#79
0.
#80
b0001110 #
b1010000 )
b0000000000001010 -
1.
#81
0.
#82
b0011101 #
b1001111 )
b0000000000001001 -
1.
#83
0.
#84
b0111011 #
b1001110 )
b0000000000001000 -
1.
#85
0.
#86
b1110110 #
b1001101 )
b0000000000000111 -
1.
#87
0.
#88
b1101100 #
b1001100 )
b0000000000000110 -
1.
10
#89
0.
b00000000000000000000000000000001 3
#90
b1011000 #
b1001011 )
b0000000000000101 -
1.
00
#91
0.
#92
b0110001 #
b1001010 )
b0000000000000100 -
1.
#93
0.
#94
b1100010 #
b1001001 )
b0000000000000011 -
1.
#95
0.
#96
b1000101 #
b1001000 )
b0000000000000010 -
1.
#97
0.
#98
b0001010 #
b1000111 )
b0000000000000001 -
1.
#99
0.
#100
b0010100 #
b1000110 )
b0000000000000000 -
1.
#101
0.
#102
b0101001 #
1'
1(
b1000101 )
b0000000000010111 -
1.
#103
0.
#104
b1010010 #
0'
0(
b1000100 )
b00000000000000000000000000000001 ,
b0000000000010110 -
1.
b00000001 2
b00000000000000000000000000000010 3
#105
0.
#106
b0100101 #
b1000011 )
b0000000000010101 -
1.
#107
0.
#108
b1001011 #
b1000010 )
b0000000000010100 -
1.
#109
0.
#110
b0010111 #
b1000001 )
b0000000000010011 -
1.
#111
0.
#112
b0101111 #
b1000000 )
b0000000000010010 -
1.
#113
0.
#114
b1011111 #
b0111111 )
b0000000000010001 -
1.
#115
0.
#116
b0111110 #
b0111110 )
b0000000000010000 -
1.
#117
0.
#118
b1111101 #
b0111101 )
b0000000000001111 -
1.
#119
0.
#120
b1111010 #
b0111100 )
b0000000000001110 -
1.
#121
0.
#122
b1110101 #
b0111011 )
b0000000000001101 -
1.
#123
0.
#124
b1101010 #
b0111010 )
b0000000000001100 -
1.
#125
0.
#126
b1010101 #
b0111001 )
b0000000000001011 -
1.
#127
0.
#128
b0101010 #
b0111000 )
b0000000000001010 -
1.
#129
0.
#130
b1010100 #
b0110111 )
b0000000000001001 -
1.
#131
0.
#132
b0101000 #
b0110110 )
b0000000000001000 -
1.
#133
0.
#134
b1010000 #
b0110101 )
b0000000000000111 -
1.
#135
0.
#136
b0100001 #
b0110100 )
b0000000000000110 -
1.
#137
0.
#138
b1000010 #
b0110011 )
b0000000000000101 -
1.
#139
0.
#140
b0000101 #
b0110010 )
b0000000000000100 -
1.
#141
0.
#142
b0001011 #
b0110001 )
b0000000000000011 -
1.
#143
0.
#144
b0010110 #
b0110000 )
b0000000000000010 -
1.
#145
0.
#146
b0101101 #
b0101111 )
b0000000000000001 -
1.
#147
0.
#148
b1011011 #
b0101110 )
b0000000000000000 -
1.
#149
0.
#150
b0110111 #
1'
1(
b0101101 )
b0000000000010111 -
1.
#151
0.
#152
b1101111 #
0'
0(
b0101100 )
b00000000000000000000000000000010 ,
b0000000000010110 -
1.
b00000011 2
b00000000000000000000000000000011 3
#153
0.
#154
b1011110 #
b0101011 )
b0000000000010101 -
1.
#155
0.
#156
b0111100 #
b0101010 )
b0000000000010100 -
1.
#157
0.
#158
b1111001 #
b0101001 )
b0000000000010011 -
1.
#159
0.
#160
b1110011 #
b0101000 )
b0000000000010010 -
1.
#161
0.
#162
b1100111 #
b0100111 )
b0000000000010001 -
1.
#163
0.
#164
b1001110 #
b0100110 )
b0000000000010000 -
1.
#165
0.
#166
b0011100 #
b0100101 )
b0000000000001111 -
1.
#167
0.
#168
b0111001 #
b0100100 )
b0000000000001110 -
1.
#169
0.
#170
b1110010 #
b0100011 )
b0000000000001101 -
1.
#171
0.
#172
b1100101 #
b0100010 )
b0000000000001100 -
1.
#173
0.
#174
b1001010 #
b0100001 )
b0000000000001011 -
1.
#175
0.
#176
b0010101 #
b0100000 )
b0000000000001010 -
1.
#177
0.
#178
b0101011 #
b0011111 )
b0000000000001001 -
1.
#179
0.
#180
b1010110 #
b0011110 )
b0000000000001000 -
1.
#181
0.
#182
b0101100 #
b0011101 )
b0000000000000111 -
1.
#183
0.
#184
b1011001 #
b0011100 )
b0000000000000110 -
1.
#185
0.
#186
b0110011 #
b0011011 )
b0000000000000101 -
1.
#187
0.
#188
b1100110 #
b0011010 )
b0000000000000100 -
1.
#189
0.
#190
b1001100 #
b0011001 )
b0000000000000011 -
1.
#191
0.
#192
b0011000 #
b0011000 )
b0000000000000010 -
1.
#193
0.
#194
b0110000 #
b0010111 )
b0000000000000001 -
1.
#195
0.
#196
b1100000 #
b0010110 )
b0000000000000000 -
1.
#197
0.
#198
b1000001 #
1'
1(
b0010101 )
b0000000000010111 -
1.
#199
0.
#200
b0000011 #
0'
0(
b0010100 )
b00000000000000000000000000000011 ,
b0000000000010110 -
1.
b00000111 2
b00000000000000000000000000000100 3
#201
0.
#202
b0000110 #
b0010011 )
b0000000000010101 -
1.
#203
0.
#204
b0001101 #
b0010010 )
b0000000000010100 -
1.
#205
0.
#206
b0011011 #
b0010001 )
b0000000000010011 -
1.
#207
0.
#208
b0110110 #
b0010000 )
b0000000000010010 -
1.
#209
0.
#210
b1101101 #
b0001111 )
b0000000000010001 -
1.
#211
0.
#212
b1011010 #
b0001110 )
b0000000000010000 -
1.
#213
0.
#214
b0110101 #
b0001101 )
b0000000000001111 -
1.
#215
0.
#216
b1101011 #
b0001100 )
b0000000000001110 -
1.
#217
0.
#218
b1010111 #
b0001011 )
b0000000000001101 -
1.
#219
0.
#220
b0101110 #
b0001010 )
b0000000000001100 -
1.
#221
0.
#222
b1011101 #
b0001001 )
b0000000000001011 -
1.
#223
0.
#224
b0111010 #
b0001000 )
b0000000000001010 -
1.
#225
0.
#226
b1110100 #
b0000111 )
b0000000000001001 -
1.
#227
0.
#228
b1101000 #
b0000110 )
b0000000000001000 -
1.
#229
0.
#230
b1010001 #
b0000101 )
b0000000000000111 -
1.
#231
0.
#232
b0100011 #
b0000100 )
b0000000000000110 -
1.
#233
0.
#234
b1000110 #
b0000011 )
b0000000000000101 -
1.
#235
0.
#236
b0001100 #
b0000010 )
b0000000000000100 -
1.
#237
0.
#238
b0011001 #
b0000001 )
b0000000000000011 -
1.
#239
0.
#240
b0110010 #
b0000000 )
b0000000000000010 -
1.
#241
0.
#242
b1100100 #
b0110001 )
b0000000000000001 -
1.
#243
0.
#244
b1001000 #
b0110000 )
b0000000000000000 -
1.
#245
0.
#246
b0010001 #
1'
1(
b0101111 )
b0000000000010111 -
1.
#247
0.
#248
b0100010 #
0'
0(
b0101110 )
b00000000000000000000000000000100 ,
b0000000000010110 -
1.
b00001111 2
b00000000000000000000000000000101 3
#249
0.
#250
b1000100 #
b0101101 )
b0000000000010101 -
1.
#251
0.
#252
b0001000 #
b0101100 )
b0000000000010100 -
1.
#253
0.
#254
b0010000 #
b0101011 )
b0000000000010011 -
1.
#255
0.
#256
b0100000 #
b0101010 )
b0000000000010010 -
1.
#257
0.
#258
b1000000 #
b0101001 )
b0000000000010001 -
1.
#259
0.
#260
b0000001 #
b0101000 )
b0000000000010000 -
1.
#261
0.
#262
b0000010 #
b0100111 )
b0000000000001111 -
1.
#263
0.
#264
b0000100 #
b0100110 )
b0000000000001110 -
1.
#265
0.
#266
b0001001 #
b0100101 )
b0000000000001101 -
1.
#267
0.
#268
b0010010 #
b0100100 )
b0000000000001100 -
1.
#269
0.
#270
b0100100 #
b0100011 )
b0000000000001011 -
1.
#271
0.
#272
b1001001 #
b0100010 )
b0000000000001010 -
1.
#273
0.
#274
b0010011 #
b0100001 )
b0000000000001001 -
1.
#275
0.
#276
b0100110 #
b0100000 )
b0000000000001000 -
1.
#277
0.
#278
b1001101 #
b0011111 )
b0000000000000111 -
1.
#279
0.
#280
b0011010 #
b0011110 )
b0000000000000110 -
1.
#281
0.
#282
b0110100 #
b0011101 )
b0000000000000101 -
1.
#283
0.
#284
b1101001 #
b0011100 )
b0000000000000100 -
1.
#285
0.
#286
b1010011 #
b0011011 )
b0000000000000011 -
1.
#287
0.
#288
b0100111 #
b0011010 )
b0000000000000010 -
1.
#289
0.
#290
b1001111 #
b0011001 )
b0000000000000001 -
1.
#291
0.
#292
b0011110 #
b0011000 )
b0000000000000000 -
1.
#293
0.
#294
b0111101 #
1'
1(
b0010111 )
b0000000000010111 -
1.
#295
0.
#296
b1111011 #
0'
0(
b0010110 )
b00000000000000000000000000000101 ,
b0000000000010110 -
1.
b00011111 2
b00000000000000000000000000000110 3
#297
0.
#298
b1110111 #
b0010101 )
b0000000000010101 -
1.
#299
0.
#300
b1101110 #
b0010100 )
b0000000000010100 -
1.
#301
0.
#302
b1011100 #
b0010011 )
b0000000000010011 -
1.
#303
0.
#304
b0111000 #
b0010010 )
b0000000000010010 -
1.
#305
0.
#306
b1110000 #
b0010001 )
b0000000000010001 -
1.
#307
0.
#308
b1100001 #
b0010000 )
b0000000000010000 -
1.
#309
0.
#310
b1000011 #
b0001111 )
b0000000000001111 -
1.
#311
0.
#312
b0000111 #
b0001110 )
b0000000000001110 -
1.
#313
0.
#314
b0001111 #
b0001101 )
b0000000000001101 -
1.
#315
0.
#316
b0011111 #
b0001100 )
b0000000000001100 -
1.
#317
0.
#318
b0111111 #
b0001011 )
b0000000000001011 -
1.
#319
0.
#320
b1111111 #
b0001010 )
b0000000000001010 -
1.
#321
0.
#322
b1111110 #
b0001001 )
b0000000000001001 -
1.
#323
0.
#324
b1111100 #
b0001000 )
b0000000000001000 -
1.
#325
0.
#326
b1111000 #
b0000111 )
b0000000000000111 -
1.
#327
0.
#328
b1110001 #
b0000110 )
b0000000000000110 -
1.
#329
0.
#330
b1100011 #
b0000101 )
b0000000000000101 -
1.
#331
0.
#332
b1000111 #
b0000100 )
b0000000000000100 -
1.
#333
0.
#334
b0001110 #
b0000011 )
b0000000000000011 -
1.
#335
0.
#336
b0011101 #
b0000010 )
b0000000000000010 -
1.
#337
0.
#338
b0111011 #
b0000001 )
b0000000000000001 -
1.
#339
0.
#340
b1110110 #
b0000000 )
b0000000000000000 -
1.
#341
0.
#342
b1101100 #
1'
1(
b1110101 )
b0000000000010111 -
1.
#343
0.
#344
b1011000 #
0'
0(
b1110100 )
b00000000000000000000000000000110 ,
b0000000000010110 -
1.
b00111111 2
b00000000000000000000000000000111 3
#345
0.
#346
b0110001 #
b1110011 )
b0000000000010101 -
1.
#347
0.
#348
b1100010 #
b1110010 )
b0000000000010100 -
1.
#349
0.
#350
b1000101 #
b1110001 )
b0000000000010011 -
1.
#351
0.
#352
b0001010 #
b1110000 )
b0000000000010010 -
1.
#353
0.
#354
b0010100 #
b1101111 )
b0000000000010001 -
1.
#355
0.
#356
b0101001 #
b1101110 )
b0000000000010000 -
1.
10
#357
0.
#358
b1010010 #
b1101101 )
b0000000000001111 -
1.
00
#359
0.
#360
b0100101 #
b1101100 )
b0000000000001110 -
1.
#361
0.
#362
b1001011 #
b1101011 )
b0000000000001101 -
1.
#363
0.
#364
b0010111 #
b1101010 )
b0000000000001100 -
1.
#365
0.
#366
b0101111 #
b1101001 )
b0000000000001011 -
1.
#367
0.
#368
b1011111 #
b1101000 )
b0000000000001010 -
1.
#369
0.
#370
b0111110 #
b1100111 )
b0000000000001001 -
1.
#371
0.
#372
b1111101 #
b1100110 )
b0000000000001000 -
1.
#373
0.
#374
b1111010 #
b1100101 )
b0000000000000111 -
1.
#375
0.
#376
b1110101 #
b1100100 )
b0000000000000110 -
1.
#377
0.
#378
b1101010 #
b1100011 )
b0000000000000101 -
1.
#379
0.
#380
b1010101 #
b1100010 )
b0000000000000100 -
1.
#381
0.
#382
b0101010 #
b1100001 )
b0000000000000011 -
1.
#383
0.
#384
b1010100 #
b1100000 )
b0000000000000010 -
1.
#385
0.
#386
b0101000 #
b1011111 )
b0000000000000001 -
1.
#387
0.
#388
b1010000 #
b1011110 )
b0000000000000000 -
1.
#389
0.
#390
b0100001 #
1'
1(
b1011101 )
b0000000000010111 -
1.
#391
0.
#392
b1000010 #
0'
0(
b1011100 )
b00000000000000000000000000000111 ,
b0000000000010110 -
1.
b01111111 2
b00000000000000000000000000001000 3
#393
0.
#394
b0000101 #
b1011011 )
b0000000000010101 -
1.
#395
0.
#396
b0001011 #
b1011010 )
b0000000000010100 -
1.
#397
0.
#398
b0010110 #
b1011001 )
b0000000000010011 -
1.
#399
0.
#400
b0101101 #
b1011000 )
b0000000000010010 -
1.
#401
0.
#402
b1011011 #
b1010111 )
b0000000000010001 -
1.
#403
0.
#404
b0110111 #
b1010110 )
b0000000000010000 -
1.
#405
0.
#406
b1101111 #
b1010101 )
b0000000000001111 -
1.
#407
0.
#408
b1011110 #
b1010100 )
b0000000000001110 -
1.
#409
0.
#410
b0111100 #
b1010011 )
b0000000000001101 -
1.
#411
0.
#412
b1111001 #
b1010010 )
b0000000000001100 -
1.
#413
0.
#414
b1110011 #
b1010001 )
b0000000000001011 -
1.
#415
0.
#416
b1100111 #
b1010000 )
b0000000000001010 -
1.
#417
0.
#418
b1001110 #
b1001111 )
b0000000000001001 -
1.
#419
0.
#420
b0011100 #
b1001110 )
b0000000000001000 -
1.
#421
0.
#422
b0111001 #
b1001101 )
b0000000000000111 -
1.
#423
0.
#424
b1110010 #
b1001100 )
b0000000000000110 -
1.
#425
0.
#426
b1100101 #
b1001011 )
b0000000000000101 -
1.
#427
0.
#428
b1001010 #
b1001010 )
b0000000000000100 -
1.
#429
0.
#430
b0010101 #
b1001001 )
b0000000000000011 -
1.
#431
0.
#432
b0101011 #
b1001000 )
b0000000000000010 -
1.
#433
0.
#434
b1010110 #
b1000111 )
b0000000000000001 -
1.
#435
0.
#436
b0101100 #
b1000110 )
b0000000000000000 -
1.
#437
0.
#438
b1011001 #
1'
1(
b1000101 )
b0000000000010111 -
1.
#439
0.
#440
b0110011 #
0$
1%
0'
0(
b1000100 )
b00000000000000000000000000000001 +
b00000000000000000000000000001000 ,
b0000000000010110 -
1.
b11111111 2
b00000000000000000000000000000000 3
#441
0.
#442
b1100110 #
b0110010 )
b00000000000000000000000000000001 *
1.
#443
0.
#444
b1001100 #
b1100101 )
1.
#445
0.
#446
b0011000 #
b1001011 )
1.
#447
0.
#448
b0110000 #
b0010111 )
1.
#449
0.
#450
b1100000 #
b0101111 )
1.
#451
0.
#452
b1000001 #
b1011111 )
1.
#453
0.
#454
b0000011 #
b1000000 )
1.
#455
0.
#456
b0000110 #
b0000010 )
1.
#457
0.
#458
b0001101 #
b0000101 )
1.
#459
0.
#460
b0011011 #
b0001100 )
1.
#461
0.
#462
b0110110 #
b0011010 )
1.
#463
0.
#464
b1101101 #
b0110101 )
1.
#465
0.
#466
b1011010 #
b1101100 )
1.
#467
0.
#468
b0110101 #
b1011001 )
1.
#469
0.
#470
b1101011 #
b0110100 )
1.
#471
0.
#472
b1010111 #
b1101010 )
1.
#473
0.
#474
b0101110 #
b1010110 )
1.
#475
0.
#476
b1011101 #
b0101101 )
1.
#477
0.
#478
b0111010 #
b1011100 )
1.
#479
0.
#480
b1110100 #
b0111001 )
1.
#481
0.
#482
b1101000 #
b1110011 )
1.
#483
0.
#484
b1010001 #
b1100111 )
1.
#485
0.
#486
b0100011 #
b1010000 )
1.
#487
0.
#488
b1000110 #
b0100010 )
1.
#489
0.
#490
b0001100 #
b1000101 )
1.
#491
0.
#492
b0011001 #
b0001011 )
1.
#493
0.
#494
b0110010 #
b0011000 )
1.
#495
0.
#496
b1100100 #
b0110001 )
1.
#497
0.
#498
b1001000 #
b1100011 )
1.
#499
0.
#500
b0010001 #
b1000111 )
1.
#501
0.
#502
b0100010 #
b0010000 )
1.
#503
0.
#504
b1000100 #
b0100001 )
1.
#505
0.
#506
b0001000 #
b1000011 )
1.
#507
0.
#508
b0010000 #
b0000111 )
1.
#509
0.
#510
b0100000 #
b0001111 )
1.
#511
0.
#512
b1000000 #
b0011111 )
1.
#513
0.
#514
b0000001 #
b0111111 )
1.
#515
0.
#516
b0000010 #
b0000000 )
b00000000000000000000000000000010 +
1.
#517
0.
#518
b0000100 #
1&
1(
b0000001 )
b00000000000000000000000000000010 *
b00000000000000000000000000000011 +
1.
#519
0.
#520
b0001001 #
1$
0%
0&
0(
b0000011 )
b00000000000000000000000000000011 *
b00000000000000000000000000000000 +
b00000000000000000000000000000000 ,
1.
b00000000 2
#521
0.
#522
b0010010 #
b0000010 )
b00000000000000000000000000000000 *
b0000000000010101 -
1.
#523
0.
#524
b0100100 #
b0000001 )
b0000000000010100 -
1.
#525
0.
#526
b1001001 #
b0000000 )
b0000000000010011 -
1.
#527
0.
#528
b0010011 #
b1001000 )
b0000000000010010 -
1.
#529
0.
#530
b0100110 #
b1000111 )
b0000000000010001 -
1.
#531
0.
#532
b1001101 #
b1000110 )
b0000000000010000 -
1.
#533
0.
#534
b0011010 #
b1000101 )
b0000000000001111 -
1.
#535
0.
#536
b0110100 #
b1000100 )
b0000000000001110 -
1.
#537
0.
#538
b1101001 #
b1000011 )
b0000000000001101 -
1.
#539
0.
#540
b1010011 #
b1000010 )
b0000000000001100 -
1.
#541
0.
#542
b0100111 #
b1000001 )
b0000000000001011 -
1.
#543
0.
#544
b1001111 #
b1000000 )
b0000000000001010 -
1.
#545
0.
#546
b0011110 #
b0111111 )
b0000000000001001 -
1.
#547
0.
#548
b0111101 #
b0111110 )
b0000000000001000 -
1.
#549
0.
#550
b1111011 #
b0111101 )
b0000000000000111 -
1.
#551
0.
#552
b1110111 #
b0111100 )
b0000000000000110 -
1.
#553
0.
#554
b1101110 #
b0111011 )
b0000000000000101 -
1.
#555
0.
#556
b1011100 #
b0111010 )
b0000000000000100 -
1.
#557
0.
#558
b0111000 #
b0111001 )
b0000000000000011 -
1.
#559
0.
#560
b1110000 #
b0111000 )
b0000000000000010 -
1.
#561
0.
#562
b1100001 #
b0110111 )
b0000000000000001 -
1.
#563
0.
#564
b1000011 #
b0110110 )
b0000000000000000 -
1.
#565
0.
#566
b0000111 #
1'
1(
b0110101 )
b0000000000010111 -
1.
#567
0.
#568
b0001111 #
0'
0(
b0110100 )
b0000000000010110 -
1.
#569
0.
#570
b0011111 #
b0110011 )
b0000000000010101 -
1.
#571
0.
#572
b0111111 #
b0110010 )
b0000000000010100 -
1.
#573
0.
#574
b1111111 #
b0110001 )
b0000000000010011 -
1.
#575
0.
#576
b1111110 #
b0110000 )
b0000000000010010 -
1.
#577
0.
#578
b1111100 #
b0101111 )
b0000000000010001 -
1.
#579
0.
#580
b1111000 #
b0101110 )
b0000000000010000 -
1.
#581
0.
#582
b1110001 #
b0101101 )
b0000000000001111 -
1.
#583
0.
#584
b1100011 #
b0101100 )
b0000000000001110 -
1.
#585
0.
#586
b1000111 #
b0101011 )
b0000000000001101 -
1.
#587
0.
#588
b0001110 #
b0101010 )
b0000000000001100 -
1.
#589
0.
#590
b0011101 #
b0101001 )
b0000000000001011 -
1.
#591
0.
#592
b0111011 #
b0101000 )
b0000000000001010 -
1.
#593
0.
#594
b1110110 #
b0100111 )
b0000000000001001 -
1.
#595
0.
#596
b1101100 #
b0100110 )
b0000000000001000 -
1.
#597
0.
#598
b1011000 #
b0100101 )
b0000000000000111 -
1.
#599
0.
#600
b0110001 #
b0100100 )
b0000000000000110 -
1.
#601
0.
#602
b1100010 #
b0100011 )
b0000000000000101 -
1.
#603
0.
#604
b1000101 #
b0100010 )
b0000000000000100 -
1.
#605
0.
#606
b0001010 #
b0100001 )
b0000000000000011 -
1.
#607
0.
#608
b0010100 #
b0100000 )
b0000000000000010 -
1.
#609
0.
#610
b0101001 #
b0011111 )
b0000000000000001 -
1.
#611
0.
#612
b1010010 #
b0011110 )
b0000000000000000 -
1.
#613
0.
#614
b0100101 #
1'
1(
b0011101 )
b0000000000010111 -
1.
#615
0.
#616
b1001011 #
0'
0(
b0011100 )
b0000000000010110 -
1.
#617
0.
#618
b0010111 #
b0011011 )
b0000000000010101 -
1.
#619
0.
#620
b0101111 #
b0011010 )
b0000000000010100 -
1.
#621
0.
#622
b1011111 #
b0011001 )
b0000000000010011 -
1.
#623
0.
#624
b0111110 #
b0011000 )
b0000000000010010 -
1.
#625
0.
#626
b1111101 #
b0010111 )
b0000000000010001 -
1.
#627
0.
#628
b1111010 #
b0010110 )
b0000000000010000 -
1.
#629
0.
#630
b1110101 #
b0010101 )
b0000000000001111 -
1.
#631
0.
#632
b1101010 #
b0010100 )
b0000000000001110 -
1.
#633
0.
#634
b1010101 #
b0010011 )
b0000000000001101 -
1.
10
#635
0.
b00000000000000000000000000000001 3
#636
b0101010 #
b0010010 )
b0000000000001100 -
1.
00
#637
0.
#638
b1010100 #
b0010001 )
b0000000000001011 -
1.
#639
0.
#640
b0101000 #
b0010000 )
b0000000000001010 -
1.
#641
0.
#642
b1010000 #
b0001111 )
b0000000000001001 -
1.
#643
0.
#644
b0100001 #
b0001110 )
b0000000000001000 -
1.
#645
0.
#646
b1000010 #
b0001101 )
b0000000000000111 -
1.
#647
0.
#648
b0000101 #
b0001100 )
b0000000000000110 -
1.
#649
0.
#650
b0001011 #
b0001011 )
b0000000000000101 -
1.
#651
0.
#652
b0010110 #
b0001010 )
b0000000000000100 -
1.
#653
0.
#654
b0101101 #
b0001001 )
b0000000000000011 -
1.
#655
0.
#656
b1011011 #
b0001000 )
b0000000000000010 -
1.
#657
0.
#658
b0110111 #
b0000111 )
b0000000000000001 -
1.
#659
0.
#660
b1101111 #
b0000110 )
b0000000000000000 -
1.
#661
0.
#662
b1011110 #
1'
1(
b0000101 )
b0000000000010111 -
1.
#663
0.
#664
b0111100 #
0'
0(
b0000100 )
b00000000000000000000000000000001 ,
b0000000000010110 -
1.
b00000001 2
b00000000000000000000000000000010 3
#665
0.
#666
b1111001 #
b0000011 )
b0000000000010101 -
1.
#667
0.
#668
b1110011 #
b0000010 )
b0000000000010100 -
1.
#669
0.
#670
b1100111 #
b0000001 )
b0000000000010011 -
1.
#671
0.
#672
b1001110 #
b0000000 )
b0000000000010010 -
1.
#673
0.
#674
b0011100 #
b1001101 )
b0000000000010001 -
1.
#675
0.
#676
b0111001 #
b1001100 )
b0000000000010000 -
1.
#677
0.
#678
b1110010 #
b1001011 )
b0000000000001111 -
1.
#679
0.
#680
b1100101 #
b1001010 )
b0000000000001110 -
1.
#681
0.
#682
b1001010 #
b1001001 )
b0000000000001101 -
1.
#683
0.
#684
b0010101 #
b1001000 )
b0000000000001100 -
1.
#685
0.
#686
b0101011 #
b1000111 )
b0000000000001011 -
1.
#687
0.
#688
b1010110 #
b1000110 )
b0000000000001010 -
1.
#689
0.
#690
b0101100 #
b1000101 )
b0000000000001001 -
1.
#691
0.
#692
b1011001 #
b1000100 )
b0000000000001000 -
1.
#693
0.
#694
b0110011 #
b1000011 )
b0000000000000111 -
1.
#695
0.
#696
b1100110 #
b1000010 )
b0000000000000110 -
1.
#697
0.
#698
b1001100 #
b1000001 )
b0000000000000101 -
1.
#699
0.
#700
b0011000 #
b1000000 )
b0000000000000100 -
1.
#701
0.
#702
b0110000 #
b0111111 )
b0000000000000011 -
1.
#703
0.
#704
b1100000 #
b0111110 )
b0000000000000010 -
1.
#705
0.
#706
b1000001 #
b0111101 )
b0000000000000001 -
1.
#707
0.
#708
b0000011 #
b0111100 )
b0000000000000000 -
1.
#709
0.
#710
b0000110 #
1'
1(
b0111011 )
b0000000000010111 -
1.
#711
0.
#712
b0001101 #
0'
0(
b0111010 )
b00000000000000000000000000000010 ,
b0000000000010110 -
1.
b00000011 2
b00000000000000000000000000000011 3
#713
0.
#714
b0011011 #
b0111001 )
b0000000000010101 -
1.
#715
0.
#716
b0110110 #
b0111000 )
b0000000000010100 -
1.
#717
0.
#718
b1101101 #
b0110111 )
b0000000000010011 -
1.
#719
0.
#720
b1011010 #
b0110110 )
b0000000000010010 -
1.
#721
0.
#722
b0110101 #
b0110101 )
b0000000000010001 -
1.
#723
0.
#724
b1101011 #
b0110100 )
b0000000000010000 -
1.
#725
0.
#726
b1010111 #
b0110011 )
b0000000000001111 -
1.
#727
0.
#728
b0101110 #
b0110010 )
b0000000000001110 -
1.
#729
0.
#730
b1011101 #
b0110001 )
b0000000000001101 -
1.
#731
0.
#732
b0111010 #
b0110000 )
b0000000000001100 -
1.
#733
0.
#734
b1110100 #
b0101111 )
b0000000000001011 -
1.
#735
0.
#736
b1101000 #
b0101110 )
b0000000000001010 -
1.
#737
0.
#738
b1010001 #
b0101101 )
b0000000000001001 -
1.
#739
0.
#740
b0100011 #
b0101100 )
b0000000000001000 -
1.
#741
0.
#742
b1000110 #
b0101011 )
b0000000000000111 -
1.
#743
0.
#744
b0001100 #
b0101010 )
b0000000000000110 -
1.
#745
0.
#746
b0011001 #
b0101001 )
b0000000000000101 -
1.
#747
0.
#748
b0110010 #
b0101000 )
b0000000000000100 -
1.
#749
0.
#750
b1100100 #
b0100111 )
b0000000000000011 -
1.
#751
0.
